{
	"createAccount": [
		{
			"Title":"Mr.",
			"FirstName":"Ruchit",
			"LastName" : "Jain",
			"Email" : "testData",
			"Password": "Sopra@12",
			"DOBDay":"7",
			"DOBMon": "June",
			"DOBYear" : "1996",
			"Company" : "Test Company",
			"Address" : "Test Address",
			"City" : "Test City",
			"State" : "New York",
			"PostalCode" : "25956",
			"Country" : "United States",
			"AdditionalInformation" : "Test Information",
			"HomePhone" : "6465435",
			"MobilePhone" : "453565541",
			"AddressAlias" : "Test Alias"	
		}
		
	]
}